{
  "project_info": {
    "project_number": "137045103241",
    "firebase_url": "https://l20filesandpermisionexamples.firebaseio.com",
    "project_id": "l20filesandpermisionexamples",
    "storage_bucket": "l20filesandpermisionexamples.appspot.com"
  },
  "client": [
    {
      "client_info": {
        "mobilesdk_app_id": "1:137045103241:android:e50858b89fee4070",
        "android_client_info": {
          "package_name": "com.kkrasylnykov.l20_filesandpermisionexamples"
        }
      },
      "oauth_client": [
        {
          "client_id": "137045103241-rtq2624jcrc6f8c31lne8cvv0hncfm91.apps.googleusercontent.com",
          "client_type": 1,
          "android_info": {
            "package_name": "com.kkrasylnykov.l20_filesandpermisionexamples",
            "certificate_hash": "33080cbf174f076288ec3e02ade44b7e6ba4146b"
          }
        },
        {
          "client_id": "137045103241-9abipfqupkhkitffjbfi58ma4c0s3v0u.apps.googleusercontent.com",
          "client_type": 3
        }
      ],
      "api_key": [
        {
          "current_key": "AIzaSyDsYD8Z5Vwh8uiq8N9IBH32giW6OQUhEh8"
        }
      ],
      "services": {
        "analytics_service": {
          "status": 1
        },
        "appinvite_service": {
          "status": 2,
          "other_platform_oauth_client": [
            {
              "client_id": "137045103241-9abipfqupkhkitffjbfi58ma4c0s3v0u.apps.googleusercontent.com",
              "client_type": 3
            }
          ]
        },
        "ads_service": {
          "status": 2
        }
      }
    }
  ],
  "configuration_version": "1"
}